				weapon attached						detached
niv 0			nothing								fire like craft
niv 1 blue		blue bouncing ray 45/-45/0°			2 fire 15/-15°
niv 1 yellow	falling ball on floor				same
niv 1 red		red/blue arcs						same
niv 2 			same as before						4 fire 90/-90/15/15° (blue)
